<?xml version="1.0" encoding="UTF-8" standalone="no"?>
<svg viewBox="0 0 216 217" xmlns="http://www.w3.org/2000/svg">
<defs>
<filter id="filter3231">
<feGaussianBlur stdDeviation="3"/>
</filter>
<linearGradient gradientUnits="userSpaceOnUse" id="linearGradient3193" x1="247.70337" x2="247.12235" y1="221.85213" y2="418.00428">
<stop offset="0" stop-color="#b6b6b6"/>
<stop offset="1" stop-color="#b6b6b6" stop-opacity="0"/>
</linearGradient>
<linearGradient gradientUnits="userSpaceOnUse" id="linearGradient3201" x1="254.02749" x2="251.86543" y1="221.85213" y2="418.00428">
<stop offset="0" stop-color="#f6f6f6"/>
<stop offset="1" stop-color="#d8d8d8"/>
<stop offset="1" stop-color="#f2f2f2" stop-opacity="0"/>
</linearGradient>
<linearGradient gradientUnits="userSpaceOnUse" id="linearGradient3211" x1="259.00236" x2="257.72567" y1="205.94108" y2="402.43317">
<stop offset="0" stop-color="#6e6e6e"/>
<stop offset="1" stop-color="#b6b6b6" stop-opacity="0"/>
</linearGradient>
<linearGradient gradientUnits="userSpaceOnUse" id="linearGradient3221" x1="261.60544" x2="265.56287" y1="163.92348" y2="437.41903">
<stop offset="0" stop-color="#999" stop-opacity=".71667"/>
<stop offset="1" stop-color="#999" stop-opacity="0"/>
</linearGradient>
</defs>
<g transform="translate(-162.00479,-216.78596)">
<path d="m170.51622,227.22849h200v200h-200z" fill="#888" filter="url(#filter3231)" opacity=".82407"/>
<path d="m167.57097,222.35214h200v200h-200z" fill="url(#linearGradient3201)" stroke="url(#linearGradient3193)"/>
<path d="m188.29486,241.93317h160v160h-160z" fill="#fff" stroke="url(#linearGradient3211)"/>
<path d="m204.94627,361.77287c4.27312-4.2731 7.72744-5.69593 13.47141-7.13192 4.44096-1.11023 9.68035-.66816 14.26385-1.58487 5.55122-1.11024 6.3395-6.19525 6.3395-11.09409 0-11.38611-5.54706-14.38177-7.13193-34.86718 2.67031-66.38829 72.69323-79.85774 87.16794-6.33949 3.98382,28.42145-1.40444,43.07218-14.26385,66.5646 14.95375,4.62077 35.44835,7.06259 36.05257,36.18993-52.29596-.73286-94.22751-1.70851-150.56581-1.25583 6.11301-21.68071-1.38493-24.24211 14.66632-40.48115z" fill="url(#linearGradient3221)" fill-rule="evenodd"/>
</g>
</svg>
