<?xml version="1.0" encoding="UTF-8" standalone="no"?>
<!DOCTYPE svg PUBLIC "-//W3C//DTD SVG 1.1//EN" "http://www.w3.org/Graphics/SVG/1.1/DTD/svg11.dtd" [
<!ENTITY ns_svg "http://www.w3.org/2000/svg">
	<!ENTITY ns_xlink "http://www.w3.org/1999/xlink">
]>
<svg enable-background="new 0 0 291.204 149.405" height="149.4" viewBox="0 0 291.204 149.405" width="291.2" xml:space="preserve" xmlns="http://www.w3.org/2000/svg">
<path d="m271.54,140.31-9.42-4.5-233.575-1.28-4.713,3.43 89.358,1.92 147.21-.21z" fill="#be854c"></path>
<g fill-rule="evenodd">
	<path d="m134.99,8.716c1.933.189-.359,3.558-.48,4.8 2.648,10.295 12.05,15.912 11.04,28.32-2.364-2.109-.951-3.673-1.44-6.24-1.84-9.634-12.98-14.273-9.12-26.88z" fill="#a39161"></path>
	<path d="m153.23,54.315c.134.986 1.282.958 1.92,1.44-1.293.948-3.472-1.31-4.8-1.92 .437-1.304 1.683.489 2.4.479 .142-1.262-1.862-.377-1.44-1.92 2.715.806 4.387,2.654 6.721,3.84-1.43,1.082-3.08-1.7-4.8-1.919z"></path>
	<path d="m131.63,64.875c.505,1.786-1.619.941-1.92,1.92-1.38-.802.89-1.942 1.92-1.92z"></path>
	<path d="m123.95,65.355c-.434,1.326-1.83,1.69-3.36,1.92 .6-1.16 1.97-1.552 3.36-1.92z"></path>
	<path d="m128.75,66.796c-2.13,1.87-5.079,2.921-7.68,4.32 1.37-2.628 4.63-3.371 7.68-4.32z"></path>
	<path d="m130.19,68.236c-.821.779-1.747,1.453-3.36,1.44 .28-1.326 2.65-2.004 3.36-1.44z"></path>
	<path d="m134.99,70.636c-.629,1.771-2.519,2.281-4.32,2.88 1.37-1.026 2.05-2.753 4.32-2.88z"></path>
	<path d="m111.95,80.235c2.21.922-1.222,2.39-2.88,2.4 .31-1.449 2.18-1.339 2.88-2.4z"></path>
	<path d="m181.55,82.636c1.886.194 2.05,2.11 3.84,2.4-1.27,1.083-3.45-1.009-3.84-2.4z"></path>
	<path d="m185.87,85.516c3.715,3.005 9.345,4.096 13.439,6.72-3.79-1.015-10.84-2.92-13.44-6.72z"></path>
	<path d="m102.83,86.956c-8.35,3.97-16.148,8.492-24.48,12.479 6.304-6.017 16.538-8.102 23.52-13.439 .82-.177.91.374.96.96z"></path>
	<path d="m58.669,107.6c-6.941,3.299-12.748,7.732-20.16,10.56 2.582-2.31 6.519-4.188 10.08-6.239 3.318-1.92 7.277-4.83 10.08-4.32z"></path>
	<path d="m61.069,108.08c-1.973,2.093-6.146,4.323-8.64,4.319 2.743-1.58 5.248-3.4 8.64-4.32z"></path>
	<path d="m228.11,110.48c5.619,2.222 13.076,6.763 18.239,11.04-6.11-3.66-12.52-7-18.24-11.04z"></path>
	<path d="m47.149,111.44c-6.332,2.629-11.068,6.853-17.28,9.601 4.275-4.686 11.388-6.533 16.32-10.561 .817-.18.906.37.96.96z"></path>
	<path d="m33.709,116.72c-5.471,1.729-8.178,6.222-13.92,7.68 3.734-2.6 10.604-8.46 13.92-7.68z"></path>
	<path d="m241.07,115.76c4.623,2.736 9.297,5.422 13.439,8.64-5.05-2.31-9.81-4.91-13.44-8.64z"></path>
	<path d="m33.229,123.44c-3.904,3.615-9.974,5.066-13.92,8.641 1.511-4.1 9.151-6.21 13.92-8.64z"></path>
	<path d="m268.91,127.28c.293-1.719 3.069-.638 2.88.96-1.66.38-2.03-.54-2.88-.96z"></path>
	<path d="m17.869,134c-2.015,2.625-5.826,3.454-8.64,5.279 1.652-2.99 5.267-4.02 8.64-5.28z"></path>
	<path d="m269.39,134c2.005,1.194 4.099,2.302 6.24,3.359-1.1,1.38-5.37-1.42-6.24-3.36z"></path>
	<path d="m273.71,134.48c2.676,1.324 5.082,2.919 7.68,4.32-2.63.54-6.12-2.2-7.68-4.32z"></path>
	<path d="m10.669,134.96c-.165,1.274-1.26,1.62-2.4,1.92-.465-1.91 1.39-1.49 2.4-1.92z"></path>
	<path d="m38.029,138.8c-3.066-.558-10.226.747-12-.48 2.245.25 9.451-1.85 12,.48z" fill="#be854c"></path>
	<path d="m38.509,137.84c6.375.32 9.205.214 14.4.479-3.551.5-11.639,1.4-14.4-.48z" fill="#be854c"></path>
	<path d="m135.95,7.756c1.612-3.231 5.29-5.248 7.2-5.76 .999-.268 3.669-.226 3.84,0 .474.627-2.445.285-2.88.48-1.74.781-6.63,2.967-8.16,5.28z" fill="#a39161"></path>
	<path d="m147.47,2.476c5.227-1.062 8.811,3.667 10.561,7.68-2.72-3.365-4.99-7.174-10.56-7.68z" fill="#a39161"></path>
	<path d="m89.869,91.275c12.038-6.679 24.897-16.954 33.12-31.2 2.192-3.797 5.39-11.661 9.12-12 5.457-.496 7.983,6.001 13.44,6.72-.564-1.996-3.072-2.048-4.32-3.36 2.81-.242 5.951,3.324 9.12,4.32-2.544-3.375-7.05-4.791-11.04-6.72-.331,1.291.993.928 1.44,1.44-1.606.789-3.594-2.153-5.76-2.4 7.997-2.403 18.981-1.861 25.44,1.44 3.952,8.255 7.647,15.705 12.96,22.08 21.919,26.303 66.814,29.413 94.08,50.4h2.4c5.661,5.378 12.727,9.353 15.84,17.279-2.068-.331-2.948-1.852-4.8-2.399 2.177,3.309 8.433,4.401 6.72,10.08-39.234-22.047-78.055-44.506-117.12-66.721h-3.36c-6.656-4.863-14.635-8.405-22.08-12.479-8.049,3.951-15.432,8.568-23.04,12.96-11.753,2.784-22.968,10.981-33.12,16.8-28.618,16.4-57.863,31.763-86.4,47.521 4.518-21.014 27.887-30.026 46.56-37.921 15.207-6.428 30.712-12.027 43.68-18.72 1.083,1.112-2.859,1.274-2.881,2.875zm68.161-35.039c-2.334-1.187-4.006-3.035-6.721-3.84-.422,1.542 1.582.658 1.44,1.92-.718.009-1.964-1.783-2.4-.479 1.328.61 3.507,2.868 4.8,1.92-.638-.482-1.786-.454-1.92-1.44 1.72.217 3.37,2.999 4.8,1.919zm4.32,1.44c-1.84-1.36-3.624-2.776-5.76-3.84 1.01,1.881 4.23,4.077 5.76,3.84zm-29.76,1.92c.005-.634.841-.438.96-.96-.954-.006-.61-1.31-1.92-.96-.158,1.364-.93.785-2.4,0-.006.954-1.31.61-.96,1.92 3.082.649 5.182,4.125 8.64,2.88-.229,1.525 5.04,3.076 4.8,1.44 1.439.828 4.229,3.699 5.28,1.92 3.022,1.462 6.289,5.225 9.6,4.8-7.094-2.987-13.185-9.534-20.16-11.04 2.734,2.07 8.319,3.836 9.12,6.24-3.297-1.987-7.596-5.52-11.04-5.76 .521.115 1.152.791.48.96-.16-1.124-2.09-.467-2.4-1.44zm37.92,9.6c-4.109-1.491-7.264-3.937-11.04-5.76 2.1,3.181 7.77,5.344 11.04,5.76zm-40.8-2.4c.301-.979 2.425-.135 1.92-1.92-1.03-.023-3.3,1.117-1.92,1.92zm39.36,0c-1.203-.265-3.161-2.242-3.84-1.44 1.05.415 2.84,2.562 3.84,1.44zm-48.48.48c1.53-.23 2.926-.594 3.36-1.92-1.39.367-2.76.759-3.36,1.92zm.48,3.84c2.601-1.399 5.55-2.45 7.68-4.32-3.05.949-6.31,1.692-7.68,4.32zm48.48.96c-2.59-1.571-4.887-3.434-7.68-4.8 1.85,1.999 5.29,4.942 7.68,4.8zm-42.72-2.4c1.613.013 2.539-.661 3.36-1.44-.71-.564-3.08.114-3.36,1.44zm3.84,3.84c1.801-.599 3.69-1.109 4.32-2.88-2.27.127-2.95,1.854-4.32,2.88zm-5.76.48c1.797-.283 2.794-1.365 3.84-2.4-1.71.367-2.92,1.237-3.84,2.4zm48,5.279c-2.534-3.386-7.327-4.513-10.561-7.2 2.57,3.356 6.77,5.071 10.56,7.2zm-63.84,3.361c1.658-.011 5.09-1.479 2.88-2.4-.7,1.06-2.57.95-2.88,2.4zm76.32,2.4c-1.79-.29-1.954-2.206-3.84-2.4 .39,1.391 2.57,3.483 3.84,2.4zm13.92,7.199c-4.095-2.624-9.725-3.715-13.439-6.72 2.6,3.801 9.65,5.706 13.44,6.72zm-97.44-6.239c-6.982,5.338-17.216,7.423-23.52,13.439 8.332-3.987 16.13-8.51 24.48-12.479-.05-.586-.14-1.137-.96-.96zm-39.361,24.484c7.369-3.831 14.958-7.441 21.6-12-7.523,3.67-15.44,6.96-21.6,12zm165.12-.48c-2.046-2.279-6.883-4.311-9.12-4.801 2.66,1.97 5.83,3.44 9.12,4.8zm-179.04,1.92c-3.561,2.052-7.498,3.93-10.08,6.239 7.413-2.827 13.219-7.261 20.16-10.56-2.803-.51-6.762,2.4-10.08,4.32zm3.84.48c2.494.004 6.667-2.227 8.64-4.319-3.392.92-5.897,2.74-8.64,4.32zm193.92,9.12c-5.163-4.277-12.62-8.818-18.239-11.04 5.72,4.04 12.13,7.38 18.24,11.04zm-200.16-11.04c-4.932,4.027-12.045,5.875-16.32,10.561 6.212-2.748 10.948-6.972 17.28-9.601-.054-.59-.143-1.14-.96-.96zm-26.4,13.92c5.742-1.458 8.449-5.951 13.92-7.68-3.316-.78-10.186,5.08-13.92,7.68zm234.72,0c-4.143-3.218-8.816-5.903-13.439-8.64 3.63,3.73 8.39,6.33 13.44,8.64zm-6.24-5.76c1.313,2.454 4.953,3.146 7.681,4.8 2.42,1.469 4.696,4.987 6.72,3.84-1.736-.823-3.038-2.082-4.32-3.359 3.143,1.701 9.029,5.633 11.521,4.8-1.131-.885-2.553-1.477-2.4-2.4-6.49-1.62-12.88-4.66-19.2-7.68zm23.52,9.6c.189-1.598-2.587-2.679-2.88-.96 .85.42 1.22,1.34 2.88.96zm-252.48,3.84c3.946-3.574 10.016-5.025 13.92-8.641-4.769,2.43-12.409,4.54-13.92,8.64zm-10.08,7.2c2.814-1.825 6.625-2.654 8.64-5.279-3.373,1.26-6.988,2.29-8.64,5.28zm266.4-1.92c-2.142-1.058-4.235-2.165-6.24-3.359 .87,1.94 5.14,4.74 6.24,3.36zm5.76,1.44c-2.598-1.401-5.004-2.996-7.68-4.32 1.56,2.12 5.05,4.86 7.68,4.32zm-273.12-1.92c1.14-.3 2.235-.646 2.4-1.92-1.01.43-2.865.01-2.4,1.92z" fill="#be854c"></path>
	<path d="m156.59,53.836c2.136,1.063 3.92,2.479 5.76,3.84-1.53.237-4.75-1.959-5.76-3.84z"></path>
	<path d="m121.07,56.716c1.535,2.02-1.299,4.158-2.4,6.24 2.171-.388 2.452-2.668 3.36-4.32-8.854,21.285-30.218,29.704-53.28,39.36-10.591,4.435-21.449,9.193-32.64,14.399-12.863,5.984-27.417,12.047-32.64,24.96-.248-6.945 5.33-12.569 10.08-15.84 33.031-22.746 87.69-27.971 107.52-64.804z" fill="#be854c"></path>
	<path d="m134.99,61.036c.672-.169.042-.845-.48-.96 3.444.24 7.743,3.773 11.04,5.76-.801-2.404-6.386-4.17-9.12-6.24 6.976,1.506 13.066,8.053 20.16,11.04-3.312.425-6.578-3.337-9.6-4.8-1.05,1.778-3.841-1.093-5.28-1.92 .239,1.636-5.029.085-4.8-1.44-3.458,1.246-5.558-2.231-8.64-2.88-.35-1.31.954-.966.96-1.92 1.47.785 2.242,1.364 2.4,0 1.31-.35.966.954 1.92.96-.119.521-.955.326-.96.96 .31.973 2.24.316 2.4,1.44z"></path>
	<path d="m159.47,63.436c3.776,1.824 6.931,4.27 11.04,5.76-3.27-.416-8.94-2.579-11.04-5.76z"></path>
	<path d="m165.23,65.355c.679-.802 2.637,1.176 3.84,1.44-1,1.123-2.79-1.024-3.84-1.44z"></path>
	<path d="m161.87,67.276c2.793,1.366 5.09,3.229 7.68,4.8-2.39.142-5.83-2.801-7.68-4.8z"></path>
	<path d="m128.75,71.596c-1.046,1.035-2.043,2.117-3.84,2.4 .92-1.163 2.13-2.033 3.84-2.4z"></path>
	<path d="m162.35,72.076c3.233,2.687 8.026,3.814 10.561,7.2-3.79-2.13-7.99-3.845-10.56-7.2z"></path>
	<path d="m118.67,82.155c-3.723,2.838-8.124,4.997-12.48,7.2 3.71-2.849 8.04-5.08 12.48-7.2z" fill="#be854c"></path>
	<path d="m105.23,89.836c-1.625,1.295-8.855,5.195-12.96,7.2 3.973-2.746 8.19-5.254 12.96-7.2z" fill="#be854c"></path>
	<path d="m91.789,97.036c-26.59,15.649-53.717,30.763-81.12,45.6-.271.854-1.334.069-.48,0 27.276-15.13 53.878-30.93 81.6-45.604z" fill="#be854c"></path>
	<path d="m84.109,98.476c-6.642,4.559-14.231,8.169-21.6,12 6.16-5.04 14.077-8.33 21.6-12.004z"></path>
	<path d="m218.51,105.2c2.237.49 7.074,2.521 9.12,4.801-3.29-1.36-6.46-2.83-9.12-4.8z"></path>
	<path d="m267.47,126.32c-.152.924 1.27,1.516 2.4,2.4-2.491.833-8.378-3.099-11.521-4.8 1.282,1.277 2.584,2.536 4.32,3.359-2.023,1.147-4.3-2.371-6.72-3.84-2.728-1.654-6.367-2.346-7.681-4.8 6.32,3.02 12.71,6.06 19.2,7.68z"></path>
	<path d="m161.87,45.196c5.816,11.314 10.702,21.061 19.68,29.28 14.172,12.975 38.632,21.132 58.561,29.76 9.188,3.979 15.739,7.521 24.96,11.04 8.164,6.235 18.416,10.384 21.6,21.601-20.856-30.668-76.957-34.223-105.12-58.561-9.203-7.953-14.728-17.543-20.64-29.76-7.989-2.747-20.732-4.597-29.28-1.44-5.264,1.944-5.27,7.047-8.64,10.56-1.944-.723 1.413-3.869 1.92-5.28-1.49-13.132 25.57-9.44 36.96-7.203z" fill="#be854c"></path>
</g>
	
	
	
	
	
	
	
	
	
	
	
	
	
	<path d="m287.15,131.12c-4.861-7.24-15.249-12.166-21.119-17.279-6.858-1.543-12.781-4.968-18.721-7.681-6.274-2.865-12.472-5.204-18.72-7.68-18.983-7.521-37.074-16.033-49.92-29.28-4.445-4.584-8.314-10.222-11.04-15.36-1.653-3.117-2.926-8.684-5.28-10.08-4.006-2.376-11.384-.24-15.36-1.92 3.722-13.277-10.838-18.05-10.08-28.8 .733-10.388 12.792-10.155 17.76-4.32 1.615,1.897 2.589,7.028 7.2,5.28 1.591-2.719-1.706-5.719-3.36-7.68-2.063-2.446-4.563-4.905-7.68-5.76-7.994-2.192-17.389,2.197-18.24,11.52-1.253,13.726 12.318,14.449 10.56,29.76-6.038,1.572-13.402-.338-16.8,1.92-2.088,1.388-5.177,10.054-7.2,13.44-2.694,4.51-6.311,9.468-9.12,12.48-14.868,15.938-37.887,22.239-59.52,31.68-7.749,3.382-15.616,7.414-23.52,11.521-10.661,5.538-22.443,10.922-25.92,21.6-.934,2.866-2.397,9.982 1.44,13.44 5.527,1.504 10.717-6.322 16.8-7.681 3.007-.671 8.517,0 13.44,0h16.8c52.987,0 126.45.48 190.56.48 10.973,0 23.427-1.301 31.68.479 6.022,1.3 10.045,8.894 17.28,8.16 4.39-5.99 1.13-13.7-1.92-18.24zm-129.12-120.96c-2.716-3.365-4.987-7.173-10.561-7.68 5.23-1.063 8.81,3.666 10.56,7.68zm-14.88-8.16c.999-.268 3.669-.226 3.84,0 .474.627-2.445.285-2.88.48-1.742.782-6.625,2.968-8.16,5.28 1.61-3.231 5.29-5.248 7.2-5.76zm-8.16,6.72c1.933.189-.359,3.558-.48,4.8 2.648,10.295 12.05,15.912 11.04,28.32-2.364-2.109-.951-3.673-1.44-6.24-1.84-9.634-12.98-14.273-9.12-26.88zm26.88,36.48c5.816,11.314 10.702,21.061 19.68,29.28 14.172,12.975 38.632,21.132 58.561,29.76 9.188,3.979 15.739,7.521 24.96,11.04 8.164,6.235 18.416,10.384 21.6,21.601-20.856-30.668-76.957-34.223-105.12-58.561-9.203-7.953-14.728-17.543-20.64-29.76-7.989-2.747-20.732-4.597-29.28-1.44-5.264,1.944-5.27,7.047-8.64,10.56-1.944-.723 1.413-3.869 1.92-5.28-1.49-13.132 25.57-9.44 36.96-7.203zm-148.32,76.324c33.031-22.741 87.688-27.967 107.52-64.8 1.535,2.02-1.299,4.158-2.4,6.24 2.171-.388 2.452-2.668 3.36-4.32-8.854,21.285-30.218,29.704-53.28,39.36-10.591,4.435-21.449,9.193-32.64,14.399-12.863,5.984-27.417,12.047-32.64,24.96-.249-6.95 5.329-12.57 10.079-15.84zm-2.88,21.12c-.271.854-1.334.069-.48,0 27.276-15.124 53.878-30.923 81.6-45.6-26.59,15.65-53.717,30.76-81.12,45.6zm133.44-72.964c4.486,1.095 6.211,1.69 12.341,5.736 4.701,3.095 8.493,5.394 12.618,7.703 29.863,16.723 61.691,33.697 90.721,51.841-25.336-.852-57.264-.065-83.937.062l-15.496-.125c-36.562-.959-80.877-.613-130.01-.897 37.27-22.1 76.32-42.416 113.77-64.324zm-51.841,27.36c3.974-2.746 8.187-5.254 12.96-7.2-1.63,1.295-8.856,5.195-12.961,7.2zm13.921-7.681c3.709-2.85 8.039-5.08 12.48-7.2-3.72,2.838-8.13,4.997-12.48,7.2zm-80.161,48.965c2.245.255 9.451-1.849 12,.48-3.066-.56-10.226.74-12-.48zm12.48-.48c6.375.32 9.205.214 14.4.479-3.551.5-11.639,1.4-14.4-.48zm15.36.48h2.88c35.978-.316 74.436.654 111.36-.479-36.973-.243-88.276.183-142.08-.96 3.557-2.492 13.7-2.126 21.6-1.92 22.902.598 55.717.749 87.344.423l.287.134 57.892.479-.083-.146c16.385.255 32.45.218 46.56.07 8.205-.086 16.979-1.066 24.48,1.439-35.844.998-63.902-.142-95.521.48 34.811,1.259 71.696-.109 97.92.96-79.04.75-144.3.89-212.64-.47zm233.76,8.64c-39.234-22.047-78.055-44.506-117.12-66.721h-3.36c-6.656-4.863-14.635-8.405-22.08-12.479-8.049,3.951-15.432,8.568-23.04,12.96-11.753,2.784-22.968,10.981-33.12,16.8-28.618,16.4-57.863,31.763-86.4,47.521 4.518-21.014 27.887-30.026 46.56-37.921 15.207-6.428 30.712-12.027 43.68-18.72 1.084,1.116-2.858,1.278-2.88,2.88 12.038-6.679 24.897-16.954 33.12-31.2 2.192-3.797 5.39-11.661 9.12-12 5.457-.496 7.983,6.001 13.44,6.72-.564-1.996-3.072-2.048-4.32-3.36 2.81-.242 5.951,3.324 9.12,4.32-2.544-3.375-7.05-4.791-11.04-6.72-.331,1.291.993.928 1.44,1.44-1.606.789-3.594-2.153-5.76-2.4 7.997-2.403 18.981-1.861 25.44,1.44 3.952,8.255 7.647,15.705 12.96,22.08 21.919,26.303 66.814,29.413 94.08,50.4h2.4c5.661,5.378 12.727,9.353 15.84,17.279-2.068-.331-2.948-1.852-4.8-2.399 2.18,3.3 8.43,4.4 6.72,10.08z"></path>
</svg>
