<?xml version="1.0" encoding="UTF-8" standalone="no"?>
<!DOCTYPE svg  PUBLIC '-//W3C//DTD SVG 1.1//EN'  'http://www.w3.org/Graphics/SVG/1.1/DTD/svg11.dtd'>
<svg id="Layer_19" style="enable-background:new 0 0 203.45 214.25" xmlns="http://www.w3.org/2000/svg" xml:space="preserve" height="214.25px" viewBox="0 0 203.45 214.25" width="203.45px" version="1.1" y="0px" x="0px" xmlns:xlink="http://www.w3.org/1999/xlink">
<symbol id="flash0.ai_x5F_3_x2F_Layer_19_x2F__x3C_Path_x3E__x5F_4" viewBox="-0.001 -5.217 9.651 5.217">
	<g id="Layer_1_2_">
		<path fill-rule="evenodd" clip-rule="evenodd" d="m9.45-0.2c0.133-0.367 0.2-0.767 0.2-1.2-0.1-2.367-1.65-3.633-4.65-3.8-1.1-0.1-2.183 0.233-3.25 1-1.2 0.8-1.783 1.8-1.75 3 0 0.4 0.05 0.8 0.15 1.2 0.1-1.167 0.583-2.15 1.45-2.95 0.833-0.8 1.85-1.216 3.05-1.25 1.2-0.033 2.25 0.333 3.15 1.1 0.933 0.767 1.483 1.733 1.65 2.9z" fill="#020202"/>
	</g>
</symbol>
<symbol id="flash0.ai_x5F_3_x2F_Layer_19_x2F__x3C_Path_x3E__x5F_4_x5F_0" viewBox="-0.001 -5.217 9.651 5.217">
	<g id="Layer_1_3_">
		<path fill-rule="evenodd" clip-rule="evenodd" d="m9.45-0.2c0.133-0.4 0.2-0.816 0.2-1.25-0.1-2.333-1.633-3.583-4.6-3.75-1.1-0.1-2.2 0.233-3.3 1-1.2 0.8-1.783 1.8-1.75 3l0.15 1.2c0.1-1.167 0.583-2.15 1.45-2.95s1.9-1.216 3.1-1.25c1.2-0.033 2.25 0.333 3.15 1.1s1.433 1.733 1.6 2.9z" fill="#020202"/>
	</g>
</symbol>
<symbol id="flash0.ai_x5F_3_x2F_Layer_19_x2F__x3C_Path_x3E__x5F_4_x5F_1" viewBox="-0.002 -5.009 8.301 5.009">
	<g id="Layer_1_4_">
		<path fill-rule="evenodd" clip-rule="evenodd" d="m8.15-0.25c0.1-0.367 0.15-0.75 0.15-1.15-0.1-2.233-1.417-3.433-3.95-3.6-0.967-0.067-1.917 0.25-2.85 0.95-1.033 0.8-1.533 1.767-1.5 2.9l0.15 1.15c0.067-1.1 0.467-2.033 1.2-2.8 0.767-0.767 1.667-1.167 2.7-1.2 1.034-0.033 1.934 0.317 2.7 1.05 0.8 0.733 1.267 1.633 1.4 2.7z" fill="#020202"/>
	</g>
</symbol>
<symbol id="flash0.ai_x5F_3_x2F_Layer_19_x2F__x3C_Path_x3E__x5F_4_x5F_2" viewBox="-0.002 -4.819 8.612 4.819">
	<g id="Layer_1_5_">
		<path fill-rule="evenodd" clip-rule="evenodd" d="m8.45-0.2c0.133-0.533 0.183-0.917 0.15-1.15-0.033-2.2-1.4-3.35-4.1-3.45-0.967-0.1-1.95 0.2-2.95 0.9-1.067 0.767-1.583 1.7-1.55 2.8l0.1 1.1c0.1-1.067 0.533-1.967 1.3-2.7s1.684-1.117 2.75-1.15c1.067-0.066 2.017 0.267 2.85 1 0.833 0.7 1.317 1.583 1.45 2.65z" fill="#020202"/>
	</g>
</symbol>
	<g clip-rule="evenodd" fill-rule="evenodd">
			<radialGradient id="SVGID_1_" gradientUnits="userSpaceOnUse" cy="213.97" cx="105.03" gradientTransform="matrix(.9997 .0252 .0065 -.2576 -6.7904 269.02)" r="99.519">
			<stop stop-opacity=".349" offset="0"/>
			<stop stop-opacity="0" offset="1"/>
		</radialGradient>
		<path d="m203.45 220.25c0 2.934-9.934 5.434-29.8 7.5-19.834 2.1-43.801 3.15-71.9 3.15-28.1 0-52.083-1.051-71.95-3.15-19.867-2.07-29.8-4.57-29.8-7.5s9.933-5.45 29.8-7.55c19.5-2.066 43.483-3.101 71.95-3.101 28.4 0 52.366 1.034 71.9 3.101 19.87 2.1 29.8 4.62 29.8 7.55z" fill="url(#SVGID_1_)"/>
			<radialGradient id="SVGID_2_" gradientUnits="userSpaceOnUse" cy="229.19" cx="43.717" gradientTransform="matrix(.9988 -.0486 -.0125 -.2578 14.008 288)" r="16.097">
			<stop stop-opacity=".4471" offset=".0863"/>
			<stop stop-opacity="0" offset="1"/>
		</radialGradient>
		<path d="m63.65 224.3c3.2 0.7 4.8 1.533 4.8 2.5s-1.6 1.8-4.8 2.5c-3.2 0.7-7.066 1.05-11.6 1.05-4.533 0-8.4-0.35-11.6-1.05s-4.8-1.533-4.8-2.5 1.6-1.8 4.8-2.5c3.267-0.7 7.133-1.05 11.6-1.05 4.5 0 8.367 0.35 11.6 1.05z" fill="url(#SVGID_2_)"/>
			<radialGradient id="SVGID_3_" gradientUnits="userSpaceOnUse" cy="-230.19" cx="-146.38" gradientTransform="matrix(-.9998 .0211 .0066 .3116 6.369 301.86)" r="19.456">
			<stop stop-opacity=".4471" offset=".0863"/>
			<stop stop-opacity="0" offset="1"/>
		</radialGradient>
		<path d="m148.95 223.25c4.633 0 8.55 0.417 11.75 1.25 3.267 0.866 4.899 1.866 4.899 3 0 1.167-1.633 2.184-4.899 3.05-3.2 0.8-7.117 1.2-11.75 1.2-4.533 0-8.434-0.4-11.7-1.2-3.233-0.866-4.85-1.883-4.85-3.05 0-1.134 1.616-2.134 4.85-3 3.2-0.83 7.1-1.25 11.7-1.25z" fill="url(#SVGID_3_)"/>
	</g>
	<g clip-rule="evenodd" fill-rule="evenodd">
		<polygon points="52.9 219.45 59.3 219.1 58.65 226.45 53.65 230.35" fill="#83807F"/>
		<polygon points="35.95 219.1 53.85 220.1 53.65 230.35 35.95 230.35" fill="#C5C2BC"/>
			<linearGradient id="SVGID_4_" y2="-44.889" gradientUnits="userSpaceOnUse" x2="233.48" gradientTransform="matrix(.000049383 1 -1 -.001 .00015438 -.000016950)" y1="-44.889" x1="213.23">
			<stop stop-color="#221F1F" offset="0"/>
			<stop stop-color="#1E1B1B" stop-opacity=".8824" offset=".051"/>
			<stop stop-color="#0D0C0C" stop-opacity=".3882" offset=".3255"/>
			<stop stop-color="#030303" stop-opacity=".0902" offset=".6235"/>
			<stop stop-opacity="0" offset="1"/>
		</linearGradient>
		<polygon points="35.95 219.45 53.85 220.5 53.65 230.7 35.95 230.7" fill="url(#SVGID_4_)"/>
		<path d="m53.65 230.35c-0.066-0.533-0.1-1.55-0.1-3.05 0-0.866 0.067-1.783 0.2-2.75l0.15-1.35 0.15 3.649c0 1-0.133 2.17-0.4 3.5z" fill="#C5C2BC"/>
		<polygon points="149.75 218.3 149.4 230.35 144.35 226.45 143.75 219.1" fill="#83807F"/>
		<polygon points="149.15 220.1 167.1 219.1 167.1 230.35 149.4 230.35" fill="#C5C2BC"/>
			<linearGradient id="SVGID_5_" y2="-158.11" gradientUnits="userSpaceOnUse" x2="233.92" gradientTransform="matrix(.000050125 1 -1 -.001 .00030337 -.000016950)" y1="-158.11" x1="213.97">
			<stop stop-color="#221F1F" offset="0"/>
			<stop stop-color="#1E1B1B" stop-opacity=".8824" offset=".051"/>
			<stop stop-color="#0D0C0C" stop-opacity=".3882" offset=".3255"/>
			<stop stop-color="#030303" stop-opacity=".0902" offset=".6235"/>
			<stop stop-opacity="0" offset="1"/>
		</linearGradient>
		<polygon points="149.15 220.5 167.1 219.45 167.1 230.7 149.4 230.7" fill="url(#SVGID_5_)"/>
		<path d="m149.4 230.35c-0.268-1.1-0.4-2.267-0.4-3.5l0.1-3.649 0.25 1.35 0.05 5.8z" fill="#C5C2BC"/>
	</g>
		<g clip-rule="evenodd" fill-rule="evenodd">
			<polygon points="172.95 213.15 29.4 214.25 29.4 34.95 172.95 34.95" fill="#DAD5CD"/>
			<polygon points="165.3 175.75 36.2 176.6 36.2 41.9 165.3 41.9" fill="#9A9794"/>
			<polygon points="165.3 175.95 36.2 175.95 39.15 173.4 162.9 173.45" fill="#7D7D7D"/>
			<rect height="2.85" width="128.3" y="41.9" x="36.2" fill="#7D7D7D"/>
			<polygon points="162.9 173.5 38.65 174.3 38.65 43.9 162.9 43.9" fill="#DAD5CD"/>
			<rect height="2.2" width="124.25" y="43.6" x="38.65" fill="#E9E3DA"/>
			<polygon points="104.5 43.9 104.5 174.15 101.6 173.85 101.6 43.9" fill="#9A9794"/>
			<polygon points="103.65 43.7 103.65 173.75 102.65 173.45 102.65 43.7" fill="#7D7D7D"/>
			<polygon points="177.25 216.9 25.65 216.95 25.65 210 177.25 210" fill="#DAD5CD"/>
			<polygon points="177.25 218.9 25.65 218.95 25.65 214.3 177.25 214.3" fill="#C5C2BC"/>
			<rect height="3.2" width="151.6" y="217.2" x="25.65" fill="#A6A29E"/>
			<rect height="2.6" width="151.6" y="209.5" x="25.65" fill="#E9E3DA"/>
			<polygon points="181 23.3 173.5 35.6 29.4 35.6 22.45 23.3" fill="#DAD5CD"/>
			<polygon points="181 23.3 178.4 27.6 24.85 27.6 22.45 23.3" fill="#B6B1AB"/>
			<polygon points="181 23.1 178.4 25.8 24.85 25.8 22.45 23.1" fill="#989491"/>
			<polygon points="176.4 30.8 173.5 35.6 29.4 35.6 26.65 30.8" fill="#B6B1AB"/>
			<polygon points="176.4 30.5 173.5 33.5 29.4 33.5 26.65 30.5" fill="#989491"/>
			<polygon points="176.75 30.3 175.65 32.1 27.4 32.1 26.4 30.3" fill="#E9E3DA"/>
			<rect height="6" width="159.65" y="17.65" x="21.35" fill="#DAD5CD"/>
			<rect height="2.6" width="159.65" y="21.15" x="21.35" fill="#C5C2BC"/>
			<rect height="2.25" width="159.65" y="17.5" x="21.35" fill="#E9E3DA"/>
				<linearGradient id="SVGID_6_" y2="-48.976" gradientUnits="userSpaceOnUse" x2="-165.58" gradientTransform="matrix(-.9999 -.0169 .0169 -.9999 -.00015847 -.000055924)" y1="-48.976" x1="-168.53">
				<stop stop-color="#A5A4A4" offset=".0118"/>
				<stop stop-color="#C7C7C7" offset=".2824"/>
				<stop stop-color="#676767" offset="1"/>
			</linearGradient>
			<path d="m167.1 54.75h-0.9c-0.567 0-0.934-0.017-1.101-0.05v-5.75c0.167-0.067 0.567-0.1 1.2-0.1 0.967 0 1.45 0.083 1.45 0.25l-0.1 5.45c0 0.067-0.18 0.133-0.55 0.2z" fill="url(#SVGID_6_)"/>
				<linearGradient id="SVGID_7_" y2="53.706" gradientUnits="userSpaceOnUse" x2="35.32" gradientTransform="matrix(.9999 -.0169 .0169 .9999 .00026993 -.000019733)" y1="53.706" x1="32.37">
				<stop stop-color="#A5A4A4" offset=".0118"/>
				<stop stop-color="#C7C7C7" offset=".2824"/>
				<stop stop-color="#676767" offset="1"/>
			</linearGradient>
			<path d="m36.2 55.95c-0.134 0.1-0.617 0.15-1.45 0.15h-0.9c-0.367-0.067-0.55-0.133-0.55-0.2l-0.1-5.5c0-0.167 0.483-0.25 1.45-0.25 1.033 0 1.55 0.083 1.55 0.25v5.55z" fill="url(#SVGID_7_)"/>
				<linearGradient id="SVGID_8_" y2="166.31" gradientUnits="userSpaceOnUse" x2="29.556" gradientTransform="matrix(.9992 -.0406 .0406 .9992 .000038490 -.000073180)" y1="166.31" x1="26.478">
				<stop stop-color="#A5A4A4" offset=".0118"/>
				<stop stop-color="#C7C7C7" offset=".2824"/>
				<stop stop-color="#676767" offset="1"/>
			</linearGradient>
			<path d="m36.45 173.15c0 0.166-0.517 0.25-1.55 0.25l-0.55 0.1c-0.6 0-0.9-0.116-0.9-0.35l-0.4-16.2c0-0.134 0.483-0.25 1.45-0.351 1.033 0 1.55 0.084 1.55 0.25l0.4 16.3z" fill="url(#SVGID_8_)"/>
				<linearGradient id="SVGID_9_" y2="159.37" gradientUnits="userSpaceOnUse" x2="173.73" gradientTransform="matrix(.9994 .0333 -.0333 .9994 .00010632 .000040598)" y1="159.37" x1="169.98">
				<stop stop-color="#A5A4A4" offset=".0118"/>
				<stop stop-color="#C7C7C7" offset=".2824"/>
				<stop stop-color="#676767" offset="1"/>
			</linearGradient>
			<path d="m167 156.6c0.967 0.101 1.45 0.217 1.45 0.351l-0.5 16.2c0 0.166-0.5 0.25-1.5 0.25h-0.75l-0.2-0.051c0.033-0.533-0.033-2.366-0.2-5.5-0.167-3.533-0.233-6.899-0.2-10.1 0.4-0.566 0.601-0.9 0.601-1 0.27-0.1 0.7-0.15 1.3-0.15z" fill="url(#SVGID_9_)"/>
			<path d="m33.3 55.9l2.9 0.05-0.25 9.35c-1.333-3.066-2.134-5.15-2.4-6.25-0.167-0.7-0.25-1.433-0.25-2.2v-0.95z" fill="#B1B0AD"/>
			<polygon points="165.1 54.7 167.1 54.75 165.3 63" fill="#B1B0AD"/>
			<polygon points="33.45 173.15 36.45 173.15 36.2 175.95" fill="#8B8987"/>
			<polygon points="165.5 173.35 167.95 173.15 165.3 175.95" fill="#8B8987"/>
		</g>
			<linearGradient id="SVGID_10_" y2="101.13" gradientUnits="userSpaceOnUse" x2="-66.476" gradientTransform="matrix(.0000031852 -1 1 -.001 -.00010729 -.000016009)" y1="101.13" x1="-380.43">
			<stop stop-color="#221F1F" offset="0"/>
			<stop stop-color="#1E1B1B" stop-opacity=".8824" offset=".051"/>
			<stop stop-color="#0D0C0C" stop-opacity=".3882" offset=".3255"/>
			<stop stop-color="#030303" stop-opacity=".0902" offset=".6235"/>
			<stop stop-opacity="0" offset="1"/>
		</linearGradient>
		<polygon fill-rule="evenodd" points="172.9 207.7 29.35 208.8 29.35 34.8 172.9 34.8" clip-rule="evenodd" fill="url(#SVGID_10_)"/>
		<g clip-rule="evenodd" fill-rule="evenodd">
			<path d="m120.35 52.85h11.9v111.5h-11.95l0.05-111.5zm11.15 2.4h-10.45l-0.05 106.95h10.5v-106.95z" fill="#B6B4B1"/>
			<polygon points="121 161.8 131.5 161.8 131.9 164.35 120.65 164.35" fill="#9D9B99"/>
			<polygon points="119.75 50.85 131.9 50.85 131.5 55.15 121.05 55.15" fill="#E9E3DA"/>
			<path d="m118.9 51h14.9v114.85h-14.95l0.05-114.85zm13.35 1.75h-11.9l-0.05 110.45h11.95v-110.45z" fill="#9A9794"/>
			<polygon points="120.3 163.7 132.25 163.7 133.5 165.45 119.15 165.45" fill="#CDC9C5"/>
			<polygon points="119.2 51.1 133.45 51.1 132.3 52.6 120.35 52.55" fill="#828383"/>
		</g>
		<g clip-rule="evenodd" fill-rule="evenodd">
			<path d="m140 52.85h12.55v111.5h-12.55v-111.5zm11.8 2.4h-11.05v106.95h11.05v-106.95z" fill="#B6B4B1"/>
			<polygon points="140.75 161.8 151.8 161.8 152.2 164.35 140.35 164.35" fill="#9D9B99"/>
			<polygon points="139.4 50.85 152.2 50.85 151.8 55.15 140.75 55.15" fill="#E9E3DA"/>
			<path d="m138.5 51h15.65v114.85h-15.7l0.05-114.85zm14.05 1.75h-12.5l-0.05 110.45h12.55v-110.45z" fill="#9A9794"/>
			<polygon points="140 163.7 152.55 163.7 153.85 165.45 138.75 165.45" fill="#CDC9C5"/>
			<polygon points="138.8 51.1 153.85 51.1 152.55 52.6 140.05 52.55" fill="#828383"/>
		</g>
		<g clip-rule="evenodd" fill-rule="evenodd">
			<path d="m52.85 52.85h11.9v111.5h-11.95l0.05-111.5zm11.2 2.4h-10.5l-0.05 106.95h10.55v-106.95z" fill="#B6B4B1"/>
			<polygon points="53.5 161.8 64.05 161.8 64.45 164.35 53.15 164.35" fill="#9D9B99"/>
			<polygon points="52.25 50.85 64.45 50.85 64.05 55.15 53.55 55.15" fill="#E9E3DA"/>
			<path d="m51.4 51h14.9v114.85h-14.95l0.05-114.85zm13.4 1.75h-11.95l-0.05 110.45h12v-110.45z" fill="#9A9794"/>
			<polygon points="52.8 163.7 64.75 163.7 66 165.45 51.65 165.45" fill="#CDC9C5"/>
			<polygon points="51.7 51.1 66 51.1 64.8 52.6 52.85 52.55" fill="#828383"/>
		</g>
		<g clip-rule="evenodd" fill-rule="evenodd">
			<path d="m72.55 52.85h12.5v111.5h-12.55l0.05-111.5zm11.75 2.4h-11.05v106.95h11.05v-106.95z" fill="#B6B4B1"/>
			<polygon points="73.25 161.8 84.3 161.8 84.7 164.35 72.85 164.35" fill="#9D9B99"/>
			<polygon points="73.25 55.15 71.9 50.85 84.7 50.85 84.3 55.15" fill="#E9E3DA"/>
			<path d="m71 51h15.65v114.85h-15.7l0.05-114.85zm14.05 1.75h-12.5l-0.05 110.45h12.55v-110.45z" fill="#9A9794"/>
			<polygon points="86.35 165.45 71.3 165.45 72.5 163.7 85.05 163.7" fill="#CDC9C5"/>
			<polygon points="72.55 52.55 71.3 51.1 86.35 51.1 85.1 52.6" fill="#828383"/>
		</g>
			<path fill-rule="evenodd" clip-rule="evenodd" d="m100.95 110.9c-0.034 1.267-0.517 2.35-1.45 3.25-0.967 0.899-2.1 1.333-3.4 1.3s-2.383-0.517-3.25-1.45-1.284-2.05-1.25-3.35c0.033-1.267 0.517-2.351 1.45-3.25 0.967-0.867 2.083-1.283 3.35-1.25 1.3 0.033 2.4 0.517 3.3 1.45 0.9 0.93 1.32 2.03 1.25 3.3z" fill="#524C49"/>
				<use opacity=".3398" style="enable-background:new" xlink:href="#flash0.ai_x5F_3_x2F_Layer_19_x2F__x3C_Path_x3E__x5F_4" transform="matrix(1 0 0 -1 91.45 111.25)" height="5.217" width="9.651" y="-5.217" x="-0.001"/>
			<path fill-rule="evenodd" clip-rule="evenodd" d="m99.9 110.35c-0.033 1.134-0.467 2.084-1.3 2.851-0.867 0.8-1.867 1.184-3 1.149-1.133-0.033-2.1-0.449-2.9-1.25-0.767-0.833-1.134-1.816-1.1-2.949 0.033-1.134 0.466-2.101 1.3-2.9 0.833-0.767 1.833-1.133 3-1.1 1.133 0.033 2.083 0.467 2.85 1.3 0.8 0.8 1.183 1.77 1.15 2.9z" fill="#605A54"/>
			<path fill-rule="evenodd" clip-rule="evenodd" d="m98.95 109.95c-0.034 0.967-0.4 1.8-1.1 2.5-0.733 0.666-1.583 0.983-2.55 0.95-1-0.034-1.833-0.4-2.5-1.101-0.667-0.733-0.983-1.583-0.95-2.55s0.4-1.783 1.1-2.45c0.733-0.667 1.583-0.983 2.55-0.95s1.8 0.4 2.5 1.1c0.667 0.7 0.983 1.53 0.95 2.5z" fill="#706864"/>
			<path fill-rule="evenodd" clip-rule="evenodd" d="m97.4 109.3c-0.033 0.733-0.3 1.334-0.8 1.8-0.534 0.5-1.167 0.733-1.9 0.7-0.7 0-1.3-0.25-1.8-0.75-0.5-0.533-0.733-1.149-0.7-1.85 0.033-0.733 0.316-1.333 0.85-1.8 0.5-0.5 1.117-0.75 1.85-0.75 0.7 0.033 1.3 0.3 1.8 0.8 0.5 0.53 0.733 1.15 0.7 1.85z" fill="#7C736E"/>
			<path fill-rule="evenodd" clip-rule="evenodd" d="m96.45 108.9c0 0.433-0.167 0.8-0.5 1.1-0.3 0.3-0.667 0.45-1.1 0.45-0.434-0.033-0.8-0.2-1.1-0.5s-0.45-0.667-0.45-1.101c0.034-0.433 0.2-0.8 0.5-1.1 0.333-0.3 0.717-0.45 1.15-0.45 0.433 0.034 0.8 0.2 1.1 0.5s0.433 0.67 0.4 1.1z" fill="#948C88"/>
			<path fill-rule="evenodd" clip-rule="evenodd" d="m115.35 111.05c-0.033 1.3-0.517 2.384-1.449 3.25-0.934 0.9-2.051 1.334-3.351 1.3-1.3-0.033-2.399-0.517-3.3-1.449-0.867-0.934-1.283-2.051-1.25-3.351 0.033-1.267 0.517-2.333 1.45-3.2 0.967-0.9 2.1-1.333 3.399-1.3 1.267 0.034 2.351 0.517 3.25 1.45 0.9 0.93 1.32 2.03 1.25 3.3z" fill="#524C49"/>
				<use opacity=".3398" style="enable-background:new" xlink:href="#flash0.ai_x5F_3_x2F_Layer_19_x2F__x3C_Path_x3E__x5F_4_x5F_0" transform="matrix(1 0 0 -1 105.85 111.4)" height="5.217" width="9.651" y="-5.217" x="-0.001"/>
			<path fill-rule="evenodd" clip-rule="evenodd" d="m114.3 110.5c-0.033 1.134-0.467 2.083-1.3 2.85-0.833 0.801-1.816 1.184-2.95 1.15-1.133-0.033-2.1-0.45-2.899-1.25-0.801-0.833-1.184-1.816-1.15-2.95 0.066-1.133 0.517-2.1 1.35-2.9 0.801-0.767 1.783-1.133 2.95-1.1 1.134 0.034 2.101 0.467 2.9 1.3 0.8 0.8 1.17 1.77 1.1 2.9z" fill="#605A54"/>
			<path fill-rule="evenodd" clip-rule="evenodd" d="m112.4 107.6c0.666 0.7 0.982 1.534 0.949 2.5-0.033 0.967-0.399 1.801-1.1 2.5-0.733 0.667-1.583 0.983-2.55 0.95s-1.783-0.399-2.45-1.1c-0.7-0.7-1.033-1.533-1-2.5s0.4-1.783 1.1-2.45c0.733-0.7 1.584-1.033 2.551-1 1 0.03 1.83 0.4 2.5 1.1z" fill="#706864"/>
			<path fill-rule="evenodd" clip-rule="evenodd" d="m111.8 109.45c-0.033 0.733-0.3 1.333-0.8 1.8-0.533 0.5-1.15 0.75-1.85 0.75-0.733-0.033-1.334-0.3-1.801-0.8-0.5-0.533-0.75-1.15-0.75-1.851 0.033-0.733 0.317-1.333 0.851-1.8 0.5-0.5 1.116-0.733 1.85-0.7 0.733 0 1.333 0.267 1.8 0.8 0.5 0.5 0.73 1.1 0.7 1.8z" fill="#7C736E"/>
			<path fill-rule="evenodd" clip-rule="evenodd" d="m110.85 109.1c0 0.434-0.166 0.784-0.5 1.051-0.3 0.3-0.666 0.449-1.1 0.449-0.434-0.033-0.8-0.199-1.1-0.5-0.301-0.3-0.434-0.666-0.4-1.1 0-0.434 0.167-0.8 0.5-1.1 0.3-0.3 0.667-0.45 1.1-0.45 0.434 0.033 0.801 0.2 1.101 0.5 0.3 0.33 0.43 0.72 0.4 1.15z" fill="#948C88"/>
		<path fill-rule="evenodd" clip-rule="evenodd" d="m38.15 182.8h62.1v23.351h-62.1v-23.35zm59.1 21.25v-19.55h-56.5v19.55h56.5z" fill="#9A9794"/>
		<polygon fill-rule="evenodd" points="38.15 205.75 40.75 203.9 40.75 204.05 97.25 204.05 97.25 203.85 100.25 205.75" clip-rule="evenodd" fill="#7D7D7D"/>
		<rect fill-rule="evenodd" height="1.35" width="56.5" clip-rule="evenodd" y="184.5" x="40.75" fill="#E9E3DA"/>
		<polygon fill-rule="evenodd" points="100.25 182.8 97.25 184.5 40.75 184.5 38.15 182.8" clip-rule="evenodd" fill="#7D7D7D"/>
			<path fill-rule="evenodd" clip-rule="evenodd" d="m72 190.7c0.767 0.866 1.133 1.916 1.1 3.149-0.034 1.233-0.467 2.267-1.3 3.101-0.8 0.866-1.75 1.267-2.85 1.2-1.134-0.034-2.083-0.483-2.85-1.351-0.767-0.899-1.133-1.967-1.1-3.2 0.066-1.233 0.5-2.267 1.3-3.1s1.767-1.233 2.9-1.2c1.1 0.03 2.033 0.5 2.8 1.4z" fill="#524C49"/>
				<use opacity=".3398" style="enable-background:new" xlink:href="#flash0.ai_x5F_3_x2F_Layer_19_x2F__x3C_Path_x3E__x5F_4_x5F_1" transform="matrix(1 0 0 -1 64.9 194.15)" height="5.009" width="8.301" y="-5.009" x="-0.002"/>
			<path fill-rule="evenodd" clip-rule="evenodd" d="m71.2 190.5c0.7 0.8 1.017 1.733 0.95 2.8-0.033 1.101-0.4 2.017-1.1 2.75-0.733 0.767-1.583 1.134-2.55 1.101-1-0.034-1.833-0.45-2.5-1.25-0.667-0.801-0.983-1.733-0.95-2.801 0.034-1.066 0.4-1.966 1.1-2.699 0.733-0.767 1.583-1.134 2.55-1.101 1 0.03 1.833 0.43 2.5 1.2z" fill="#605A54"/>
			<path fill-rule="evenodd" clip-rule="evenodd" d="m71.35 192.95c-0.034 0.934-0.35 1.717-0.95 2.35-0.6 0.634-1.333 0.934-2.2 0.9-0.833-0.033-1.55-0.384-2.15-1.05-0.566-0.667-0.833-1.467-0.8-2.4s0.35-1.717 0.95-2.35c0.633-0.634 1.366-0.934 2.2-0.9s1.55 0.384 2.15 1.05c0.567 0.67 0.833 1.47 0.8 2.4z" fill="#706864"/>
			<path fill-rule="evenodd" clip-rule="evenodd" d="m70.05 192.35c-0.033 0.667-0.267 1.233-0.7 1.7-0.467 0.467-1 0.684-1.6 0.65-0.633 0-1.15-0.25-1.55-0.75-0.434-0.467-0.65-1.05-0.65-1.75 0.034-0.667 0.267-1.233 0.7-1.7 0.467-0.467 1-0.7 1.6-0.7 0.633 0.033 1.15 0.3 1.55 0.8 0.433 0.5 0.65 1.08 0.65 1.75z" fill="#7C736E"/>
			<path fill-rule="evenodd" clip-rule="evenodd" d="m69.2 191.95c0 0.399-0.134 0.75-0.4 1.05-0.267 0.267-0.583 0.4-0.95 0.4s-0.684-0.15-0.95-0.45-0.4-0.65-0.4-1.05c0.033-0.434 0.183-0.784 0.45-1.051 0.267-0.3 0.583-0.433 0.95-0.399 0.367 0 0.684 0.149 0.95 0.45 0.267 0.3 0.383 0.65 0.35 1.05z" fill="#948C88"/>
		<path fill-rule="evenodd" clip-rule="evenodd" d="m165.7 182.2v23.35h-62.1v-23.35h62.1zm-3 21.25v-19.55h-56.45v19.55h56.45z" fill="#9A9794"/>
		<polygon fill-rule="evenodd" points="162.7 203.45 162.7 203.25 165.7 205.15 103.6 205.15 106.25 203.3 106.25 203.45" clip-rule="evenodd" fill="#7D7D7D"/>
		<rect fill-rule="evenodd" height="1.35" width="56.45" clip-rule="evenodd" y="183.9" x="106.25" fill="#E9E3DA"/>
		<polygon fill-rule="evenodd" points="165.7 182.2 162.7 183.9 106.25 183.9 103.6 182.2" clip-rule="evenodd" fill="#7D7D7D"/>
			<path fill-rule="evenodd" clip-rule="evenodd" d="m140.05 193.2c-0.033 1.166-0.467 2.166-1.3 3-0.867 0.833-1.884 1.217-3.05 1.149-1.134-0.033-2.101-0.466-2.9-1.3-0.8-0.866-1.184-1.883-1.149-3.05 0.066-1.2 0.517-2.2 1.35-3 0.833-0.833 1.833-1.233 3-1.2 1.167 0.066 2.15 0.517 2.95 1.351 0.8 0.87 1.17 1.88 1.1 3.05z" fill="#524C49"/>
				<use opacity=".3398" style="enable-background:new" xlink:href="#flash0.ai_x5F_3_x2F_Layer_19_x2F__x3C_Path_x3E__x5F_4_x5F_2" transform="matrix(1 0 0 -1 131.55 193.5)" height="4.819" width="8.612" y="-4.819" x="-0.002"/>
			<path fill-rule="evenodd" clip-rule="evenodd" d="m139.1 192.7c-0.033 1.033-0.416 1.916-1.149 2.649-0.767 0.7-1.667 1.034-2.7 1-1.033-0.033-1.9-0.416-2.6-1.149-0.7-0.767-1.034-1.667-1-2.7 0.066-1.066 0.466-1.95 1.199-2.65 0.733-0.733 1.617-1.083 2.65-1.05s1.9 0.434 2.6 1.2c0.7 0.73 1.03 1.63 1 2.7z" fill="#605A54"/>
			<path fill-rule="evenodd" clip-rule="evenodd" d="m138.25 192.35c-0.033 0.9-0.367 1.65-1 2.25-0.634 0.634-1.4 0.934-2.3 0.9-0.867-0.033-1.601-0.366-2.2-1-0.6-0.667-0.884-1.45-0.85-2.35 0.033-0.9 0.366-1.65 1-2.25 0.633-0.634 1.399-0.934 2.3-0.9 0.866 0.033 1.6 0.366 2.2 1 0.6 0.67 0.88 1.45 0.85 2.35z" fill="#706864"/>
			<path fill-rule="evenodd" clip-rule="evenodd" d="m136.85 191.75c0 0.667-0.233 1.217-0.699 1.65-0.467 0.466-1.034 0.683-1.7 0.649-0.634-0.033-1.167-0.283-1.601-0.75-0.433-0.467-0.649-1.033-0.649-1.7 0.033-0.633 0.283-1.183 0.75-1.649s1.017-0.684 1.649-0.65c0.667 0.033 1.217 0.283 1.65 0.75s0.63 1.03 0.6 1.7z" fill="#7C736E"/>
			<path fill-rule="evenodd" clip-rule="evenodd" d="m136.05 191.35c-0.033 0.4-0.184 0.733-0.45 1-0.3 0.301-0.633 0.434-1 0.4-0.399 0-0.733-0.134-1-0.4-0.267-0.3-0.399-0.649-0.399-1.05 0.033-0.399 0.183-0.733 0.45-1 0.3-0.3 0.633-0.434 1-0.399 0.399 0 0.732 0.149 1 0.449 0.27 0.3 0.4 0.63 0.4 1z" fill="#948C88"/>
</svg>
