<?xml version="1.0" encoding="UTF-8" standalone="no"?>
<svg height="92.620953" viewBox="0 0 92.620953 254.80682" width="92.620953" xmlns="http://www.w3.org/2000/svg" xmlns:xlink="http://www.w3.org/1999/xlink">
<defs>
<filter id="filter65917">
<feGaussianBlur stdDeviation=".775"/>
</filter>
<linearGradient id="linearGradient64926">
<stop offset="0" stop-color="#6c7979" stop-opacity=".588"/>
<stop offset="1" stop-opacity=".773"/>
</linearGradient>
<linearGradient gradientUnits="userSpaceOnUse" id="linearGradient87519" x1="333.8379" x2="117.4277" y1="940.8915" y2="501.5851">
<stop offset="0"/>
<stop offset="1" stop-opacity=".67"/>
</linearGradient>
<linearGradient gradientUnits="userSpaceOnUse" id="linearGradient87521" x1="450.7194" x2="473.8837" xlink:href="#linearGradient64926" y1="709.6298" y2="682.4074"/>
<linearGradient gradientUnits="userSpaceOnUse" id="linearGradient87523" x1="464.2319" x2="446.2152" xlink:href="#linearGradient64926" y1="682.7326" y2="714.3087"/>
</defs>
<g transform="matrix(.69519,0,0,.69519,-127.1397,-362.54969)">
<path d="m186.7436,524.1619h125.5138a1.2087,1.2087 0 0,1 1.2087,1.2087v358.8111a1.2087,1.2087 0 0,1 -1.2087,1.2087h-125.5138a1.2087,1.2087 0 0,1 -1.2087-1.2087v-358.8111a1.2087,1.2087 0 0,1 1.2087-1.2087" stroke="url(#linearGradient87519)" stroke-width="5.3"/>
<path d="m139.6044,646.2402a35.6566,35.6566 0 1,1 -71.3131,0 35.6566,35.6566 0 1,1 71.3131,0z" stroke="#57595a" stroke-width="6.753" transform="matrix(1.40678,0,0,1.40678,103.26873,-177.20392)"/>
<path d="m483.9444,688.0232a51.6718,54.6935 0 0,1 -11.2348,21.6066l-38.4854-36.496z" fill="url(#linearGradient87521)" filter="url(#filter65917)" transform="matrix(.91417,0,0,.83458,-150.31529,170.21077)"/>
<path d="m472.7625,709.5671a51.6718,54.6935 0 0,1 -20.1949,14.6978l-18.3434-51.1311z" fill="url(#linearGradient87523)" filter="url(#filter65917)" transform="matrix(.91417,0,0,.83458,-149.80673,169.85954)"/>
<path d="m64.459,598.7612a10.8783,9.9717 0 1,1 1.0463-.3097" transform="matrix(.32252,0,0,.35519,229.61859,522.65948)"/>
<path d="m46.9532,534.8416a1.9902,1.9902 0 1,1 .1914-.0618" transform="translate(203.0619,149.0778)"/>
<path d="m46.9532,534.8416a1.9902,1.9902 0 1,1 .1914-.0618" transform="translate(252.811,198.9944)"/>
<path d="m46.9532,534.8416a1.9902,1.9902 0 1,1 .1914-.0618" transform="translate(203.0619,249.724)"/>
<path d="m46.9532,534.8416a1.9902,1.9902 0 1,1 .1914-.0618" transform="translate(152.6378,198.9944)"/>
<path d="m139.6044,646.2402a35.6566,35.6566 0 1,1 -71.3131,0 35.6566,35.6566 0 1,1 71.3131,0z" stroke="#57595a" stroke-width="13.5373" transform="matrix(.70176,0,0,.70176,176.55376,184.55978)"/>
<path d="m483.9444,688.0232a51.6718,54.6935 0 0,1 -11.2348,21.6066l-38.4854-36.496z" fill="url(#linearGradient87521)" filter="url(#filter65917)" transform="matrix(.42068,0,0,.36907,65.40186,389.65475)"/>
<path d="m472.7625,709.5671a51.6718,54.6935 0 0,1 -20.1949,14.6978l-18.3434-51.1311z" fill="url(#linearGradient87523)" filter="url(#filter65917)" transform="matrix(.42068,0,0,.36907,65.63589,389.49943)"/>
<path d="m64.459,598.7612a10.8783,9.9717 0 1,1 1.0463-.3097" transform="matrix(.16088,0,0,.17719,239.58254,533.68195)"/>
<path d="m46.9532,534.8416a1.9902,1.9902 0 1,1 .1914-.0618" transform="matrix(1.32645,0,0,1.32645,187.90229,-93.53267)"/>
<path d="m46.9532,534.8416a1.9902,1.9902 0 1,1 .1914-.0618" transform="matrix(1.32645,0,0,1.32645,212.49773,-68.82117)"/>
<path d="m46.9532,534.8416a1.9902,1.9902 0 1,1 .1914-.0618" transform="matrix(1.32645,0,0,1.32645,187.90229,-43.97913)"/>
<path d="m46.9532,534.8416a1.9902,1.9902 0 1,1 .1914-.0618" transform="matrix(1.32645,0,0,1.32645,163.07476,-68.82117)"/>
<path d="m139.6044,646.2402a35.6566,35.6566 0 1,1 -71.3131,0 35.6566,35.6566 0 1,1 71.3131,0z" stroke="#57595a" stroke-width="13.5373" transform="matrix(.70176,0,0,.70176,176.55376,112.97209)"/>
<path d="m483.9444,688.0232a51.6718,54.6935 0 0,1 -11.2348,21.6066l-38.4854-36.496z" fill="url(#linearGradient87521)" filter="url(#filter65917)" transform="matrix(.42068,0,0,.36907,65.40186,318.06706)"/>
<path d="m472.7625,709.5671a51.6718,54.6935 0 0,1 -20.1949,14.6978l-18.3434-51.1311z" fill="url(#linearGradient87523)" filter="url(#filter65917)" transform="matrix(.42068,0,0,.36907,65.63589,317.91174)"/>
<path d="m64.459,598.7612a10.8783,9.9717 0 1,1 1.0463-.3097" transform="matrix(.16088,0,0,.17719,239.58254,462.09426)"/>
<path d="m46.9532,534.8416a1.9902,1.9902 0 1,1 .1914-.0618" transform="matrix(1.32645,0,0,1.32645,187.90229,-165.12036)"/>
<path d="m46.9532,534.8416a1.9902,1.9902 0 1,1 .1914-.0618" transform="matrix(1.32645,0,0,1.32645,212.49773,-140.40886)"/>
<path d="m46.9532,534.8416a1.9902,1.9902 0 1,1 .1914-.0618" transform="matrix(1.32645,0,0,1.32645,187.90229,-115.56682)"/>
<path d="m46.9532,534.8416a1.9902,1.9902 0 1,1 .1914-.0618" transform="matrix(1.32645,0,0,1.32645,163.07476,-140.40886)"/>
</g>
</svg>
